…
top10_table <- covid_change |> 
  transmute(
    ZIP = zip_code,
    Borough = borough,
    Neighborhood = neighborhood,
    `ZORI Jan 2020` = round(zori_2020),
    `ZORI Jan 2021` = round(zori_2021),
    `Change` = round(change)
  )

top10_table
```

    ## # A tibble: 149 × 6
    ##      ZIP Borough         Neighborhood     `ZORI Jan 2020` `ZORI Jan 2021` Change
    ##    <dbl> <chr>           <chr>                      <dbl>           <dbl>  <dbl>
    ##  1 10001 New York County Chelsea and Cli…            4108            3398   -710
    ##  2 10002 New York County Lower East Side             3645            2935   -710
    ##  3 10003 New York County Lower East Side             3570            2897   -673
    ##  4 10004 New York County Lower Manhattan             3150            2444   -706
    ##  5 10005 New York County Lower Manhattan             3408            2918   -490
    ##  6 10006 New York County Lower Manhattan               NA            2956     NA
    ##  7 10007 New York County Lower Manhattan             6334            5422   -913
    ##  8 10009 New York County Lower East Side             3406            2692   -714
    ##  9 10010 New York County Gramercy Park a…            3697            3012   -685
    ## 10 10011 New York County Chelsea and Cli…            4104            3442   -662
    ## # ℹ 139 more rows
…
